{
  
"items":[
		{
                "Name": "DNB",
			    "Percent": 5
			
		}, {
		      	"Name": "Swedish",
                "Percent": 10
			
		},
         {
                  "Name": "Norway",
			      "Percent": 1
			
		},
         {
			      "Name": "Denmark",
                  "Percent": 30
			
		},
		{
            "Name":"Hello",
            "Percent":100
        }
]
         
}
  
  